{ "frames": [
   {
    "filename": "diamond-counter #CounterIdle 0.aseprite",
    "frame": { "x": 0, "y": 0, "w": 96, "h": 96 },
    "rotated": false,
    "trimmed": false,
    "spriteSourceSize": { "x": 0, "y": 0, "w": 96, "h": 96 },
    "sourceSize": { "w": 96, "h": 96 },
    "duration": 100
   },
   {
    "filename": "diamond-counter #CounterIdle 1.aseprite",
    "frame": { "x": 96, "y": 0, "w": 96, "h": 96 },
    "rotated": false,
    "trimmed": false,
    "spriteSourceSize": { "x": 0, "y": 0, "w": 96, "h": 96 },
    "sourceSize": { "w": 96, "h": 96 },
    "duration": 100
   },
   {
    "filename": "diamond-counter #CounterIdle 2.aseprite",
    "frame": { "x": 192, "y": 0, "w": 96, "h": 96 },
    "rotated": false,
    "trimmed": false,
    "spriteSourceSize": { "x": 0, "y": 0, "w": 96, "h": 96 },
    "sourceSize": { "w": 96, "h": 96 },
    "duration": 100
   },
   {
    "filename": "diamond-counter #CounterIdle 3.aseprite",
    "frame": { "x": 288, "y": 0, "w": 96, "h": 96 },
    "rotated": false,
    "trimmed": false,
    "spriteSourceSize": { "x": 0, "y": 0, "w": 96, "h": 96 },
    "sourceSize": { "w": 96, "h": 96 },
    "duration": 100
   },
   {
    "filename": "diamond-counter #CounterIdle 4.aseprite",
    "frame": { "x": 384, "y": 0, "w": 96, "h": 96 },
    "rotated": false,
    "trimmed": false,
    "spriteSourceSize": { "x": 0, "y": 0, "w": 96, "h": 96 },
    "sourceSize": { "w": 96, "h": 96 },
    "duration": 100
   },
   {
    "filename": "diamond-counter #CounterIdle 5.aseprite",
    "frame": { "x": 480, "y": 0, "w": 96, "h": 96 },
    "rotated": false,
    "trimmed": false,
    "spriteSourceSize": { "x": 0, "y": 0, "w": 96, "h": 96 },
    "sourceSize": { "w": 96, "h": 96 },
    "duration": 100
   },
   {
    "filename": "diamond-counter #CounterIdle 6.aseprite",
    "frame": { "x": 576, "y": 0, "w": 96, "h": 96 },
    "rotated": false,
    "trimmed": false,
    "spriteSourceSize": { "x": 0, "y": 0, "w": 96, "h": 96 },
    "sourceSize": { "w": 96, "h": 96 },
    "duration": 100
   },
   {
    "filename": "diamond-counter #CounterIdle 7.aseprite",
    "frame": { "x": 672, "y": 0, "w": 96, "h": 96 },
    "rotated": false,
    "trimmed": false,
    "spriteSourceSize": { "x": 0, "y": 0, "w": 96, "h": 96 },
    "sourceSize": { "w": 96, "h": 96 },
    "duration": 100
   }
 ],
 "meta": {
  "app": "http://www.aseprite.org/",
  "version": "1.2.25-dev",
  "image": "diamond-counter.png",
  "format": "RGBA8888",
  "size": { "w": 768, "h": 96 },
  "scale": "1",
  "frameTags": [
   { "name": "CounterIdle", "from": 0, "to": 7, "direction": "forward" },
   { "name": "Numbers", "from": 8, "to": 8, "direction": "forward" }
  ],
  "layers": [
   { "name": "Cannon", "opacity": 255, "blendMode": "normal" }
  ],
  "slices": [
  ]
 }
}
