[gd_scene load_steps=2 format=2]

[ext_resource path="res://Scripts/Animator.gd" type="Script" id=1]

[node name="IPig" type="KinematicBody2D"]

[node name="CollisionShape2D" type="CollisionShape2D" parent="."]

[node name="Animator" type="AnimatedSprite" parent="."]
script = ExtResource( 1 )

[node name="RayCast2D" type="RayCast2D" parent="."]

[node name="AudioStreamPlayer2D" type="AudioStreamPlayer2D" parent="."]

[node name="BehaviourTree" type="Node" parent="."]
